<?xml version="1.0" standalone="no"?>
<!DOCTYPE svg PUBLIC "-//W3C//DTD SVG 20010904//EN"
 "http://www.w3.org/TR/2001/REC-SVG-20010904/DTD/svg10.dtd">
<svg version="1.0" xmlns="http://www.w3.org/2000/svg"
 width="800.000000pt" height="800.000000pt" viewBox="0 0 800.000000 800.000000"
 preserveAspectRatio="xMidYMid meet">
<metadata>
Created by potrace 1.15, written by Peter Selinger 2001-2017
</metadata>
<g transform="translate(0.000000,800.000000) scale(0.100000,-0.100000)"
fill="#000000" stroke="none">
<path d="M2395 7185 c-47 -11 -103 -40 -150 -75 -56 -42 -165 -164 -199 -223
-21 -37 -43 -67 -47 -67 -5 0 -9 -7 -9 -15 0 -8 -11 -38 -25 -67 -13 -29 -36
-82 -49 -118 -14 -36 -30 -78 -37 -95 -7 -16 -11 -36 -10 -44 1 -8 -2 -10 -10
-6 -9 6 -10 1 -5 -19 3 -14 2 -26 -3 -26 -5 0 -11 -12 -14 -27 -2 -16 -16 -84
-30 -153 -14 -69 -31 -168 -37 -220 -7 -52 -17 -100 -22 -107 -5 -6 -9 -36 -8
-65 2 -29 -1 -61 -5 -71 -4 -10 -5 -51 -2 -90 11 -130 95 -255 227 -340 75
-47 233 -124 247 -120 6 2 14 -1 18 -6 3 -6 15 -11 25 -11 10 0 31 -5 47 -12
15 -6 41 -12 58 -14 16 -1 31 -7 33 -13 5 -16 289 -15 294 1 2 6 18 11 36 11
18 0 32 4 32 9 0 4 10 8 23 8 12 0 35 7 51 15 16 9 36 13 43 11 7 -3 13 -1 13
4 0 6 6 10 13 10 16 0 169 77 222 111 70 46 152 132 174 185 12 27 26 57 32
67 13 24 24 141 14 164 -4 10 -7 40 -5 66 1 26 -3 53 -8 60 -5 7 -12 41 -16
77 -9 81 -35 250 -43 270 -3 8 -7 22 -8 30 -7 57 -30 150 -37 150 -5 0 -8 6
-7 13 1 6 -1 21 -6 32 -4 11 -21 56 -37 100 -16 44 -43 111 -59 149 -16 38
-29 75 -29 82 0 8 -4 14 -9 14 -4 0 -26 30 -47 67 -51 87 -214 253 -248 253
-5 0 -17 7 -27 16 -43 39 -246 56 -354 29z"/>
<path d="M4685 7192 c-6 -4 -33 -36 -60 -71 -28 -35 -60 -75 -72 -88 -13 -13
-23 -27 -23 -30 0 -3 -13 -19 -30 -35 -16 -15 -30 -32 -30 -37 0 -5 -7 -14
-15 -21 -13 -11 -15 -92 -15 -616 0 -557 1 -605 17 -624 10 -11 23 -20 30 -20
6 0 19 -10 28 -22 8 -13 19 -23 23 -23 8 0 98 -72 121 -97 8 -10 20 -18 26
-18 6 0 21 -10 32 -22 12 -13 36 -35 55 -50 18 -15 53 -43 78 -63 25 -20 57
-46 71 -58 15 -12 41 -33 58 -47 18 -14 46 -37 64 -52 31 -27 34 -28 157 -28
107 0 128 3 142 18 8 9 28 26 42 37 28 21 65 51 127 104 20 17 42 31 48 31 6
0 11 4 11 9 0 7 42 44 144 123 16 13 44 35 61 51 18 15 37 27 42 27 5 0 20 12
35 28 14 15 42 41 62 57 l36 30 0 611 c0 532 -2 613 -15 624 -8 7 -15 17 -15
22 0 6 -13 23 -30 38 -16 15 -30 33 -30 38 0 6 -10 19 -22 29 -13 10 -35 35
-51 55 -15 21 -41 52 -57 70 l-30 32 0 -707 c0 -665 -1 -708 -17 -714 -10 -4
-26 -17 -36 -29 -10 -13 -27 -26 -38 -29 -11 -4 -30 -16 -43 -28 -48 -45 -161
-132 -168 -129 -5 1 -8 -2 -8 -8 0 -5 -7 -10 -15 -10 -9 0 -18 -7 -21 -15 -4
-8 -10 -15 -15 -15 -5 0 -9 354 -9 840 l0 840 -135 0 -135 0 0 -840 0 -840
-25 16 c-14 9 -25 22 -25 29 0 7 -12 16 -27 20 -15 3 -41 18 -59 33 -17 15
-48 41 -69 57 -21 17 -49 40 -63 53 -14 12 -30 22 -37 22 -7 0 -19 8 -28 18
-16 17 -17 82 -17 725 0 389 -3 707 -7 707 -5 0 -13 -4 -18 -8z"/>
<path d="M2422 4953 l3 -108 113 -3 112 -3 0 111 0 110 -115 0 -116 0 3 -107z"/>
<path d="M5082 4953 l3 -108 113 -3 112 -3 0 111 0 110 -115 0 -116 0 3 -107z"/>
<path d="M1013 4803 c-26 -5 -53 -39 -53 -64 0 -10 12 -27 26 -38 l27 -21
2911 0 c2321 0 2916 3 2936 13 46 23 39 88 -11 106 -23 8 -842 11 -2923 10
-1590 -1 -2901 -4 -2913 -6z"/>
<path d="M2545 4418 c-60 -15 -136 -32 -167 -38 -47 -9 -59 -16 -63 -33 -6
-29 -23 -261 -19 -266 5 -5 328 61 338 70 10 9 36 281 27 289 -3 3 -55 -7
-116 -22z"/>
<path d="M1586 4271 c-175 -43 -160 -22 -170 -221 -7 -139 -23 -358 -51 -705
-15 -182 -19 -205 -46 -261 -16 -34 -30 -72 -31 -85 l-3 -24 215 3 c118 2 282
7 364 11 l149 7 27 31 c33 37 105 242 90 257 -6 6 -81 2 -212 -11 -112 -11
-205 -18 -208 -16 -4 4 21 298 71 837 10 110 16 203 13 208 -9 14 -53 7 -208
-31z"/>
<path d="M3105 4005 c-22 -7 -93 -23 -159 -36 -97 -19 -120 -27 -127 -44 -4
-11 -24 -213 -44 -450 -20 -236 -38 -442 -41 -457 -10 -52 18 -52 173 2 78 27
150 53 161 59 16 9 21 26 27 98 18 237 45 455 60 483 20 38 87 88 131 96 113
21 131 -47 99 -371 -8 -82 -19 -184 -25 -225 -15 -118 -15 -170 -1 -180 8 -4
42 0 80 11 36 10 102 29 146 42 l80 23 33 294 c38 334 42 349 126 389 61 30
112 25 140 -12 19 -26 21 -41 20 -145 -1 -64 -13 -218 -28 -341 -14 -123 -26
-232 -26 -241 0 -36 23 -32 273 41 l67 20 0 74 c0 41 12 179 26 307 35 324 23
415 -69 493 -50 43 -90 55 -182 55 -91 0 -170 -20 -270 -69 l-79 -39 -38 43
c-45 51 -90 69 -174 67 -65 -1 -179 -34 -264 -77 -27 -14 -51 -25 -54 -25 -2
0 -1 29 2 65 5 72 6 72 -63 50z"/>
<path d="M5263 3995 c-57 -8 -107 -16 -112 -19 -5 -3 -12 -22 -15 -41 l-7 -35
-33 25 c-146 112 -362 84 -500 -66 -121 -131 -181 -346 -146 -530 15 -81 70
-188 125 -242 134 -134 326 -148 454 -32 23 21 43 36 44 34 2 -2 9 -22 15 -44
23 -80 22 -80 162 -19 68 30 128 58 134 64 6 6 2 18 -12 33 -15 16 -22 36 -22
64 0 35 70 697 84 791 5 31 4 32 -32 31 -20 -1 -83 -7 -139 -14z m-210 -263
c45 -24 47 -27 47 -68 0 -23 -11 -119 -25 -214 -14 -95 -25 -175 -25 -179 0
-15 -98 -61 -130 -61 -24 0 -42 10 -70 38 -48 48 -64 118 -58 252 6 109 31
179 81 228 51 49 95 50 180 4z"/>
<path d="M5959 4003 c-1 -5 -1 -15 0 -23 1 -11 -20 -22 -71 -37 -217 -64 -358
-254 -358 -483 0 -315 246 -520 573 -479 304 38 494 272 474 584 -15 235 -156
381 -415 431 -79 15 -201 19 -203 7z m167 -262 c48 -22 78 -51 107 -106 41
-77 23 -266 -34 -349 -54 -79 -156 -104 -233 -57 -76 47 -116 172 -96 298 30
188 130 271 256 214z"/>
<path d="M2570 3983 c-25 -8 -99 -25 -164 -39 -66 -13 -123 -28 -126 -34 -9
-14 -90 -919 -83 -932 2 -3 79 20 171 52 165 57 167 58 175 91 11 50 84 870
78 873 -3 2 -26 -3 -51 -11z"/>
<path d="M2420 2710 c0 -7 -256 -10 -748 -10 -583 0 -752 -3 -765 -12 -27 -21
-31 -61 -9 -89 l20 -24 751 -3 751 -2 2 -888 3 -887 113 -3 112 -3 -2 891 -3
890 1218 0 1217 0 0 -890 0 -890 115 0 115 0 0 890 -1 890 804 0 c800 0 804 0
831 21 31 24 35 68 8 92 -17 15 -91 17 -830 17 -517 0 -813 4 -817 10 -8 13
-225 13 -225 0 0 -14 -2427 -14 -2435 0 -8 13 -225 13 -225 0z"/>
</g>
</svg>
